/*
 * 
 * Intel ACPI Component Architecture
 * ASL+ Optimizing Compiler version 20150717-64
 * Copyright (c) 2000 - 2015 Intel Corporation
 * 
 * Compilation of "OFF.dsl" - Sat Oct 24 01:58:23 2015
 * 
 * C source code output
 * AML code block contains 0x55 bytes
 *
 */
unsigned char AmlCode[] =
{
    0x53,0x53,0x44,0x54,0x55,0x00,0x00,0x00,  /* 00000000    "SSDTU..." */
    0x01,0xB7,0x00,0x00,0x00,0x00,0x00,0x00,  /* 00000008    "........" */
    0x00,0x00,0x00,0x00,0x00,0x00,0x00,0x00,  /* 00000010    "........" */
    0x00,0x10,0x00,0x00,0x49,0x4E,0x54,0x4C,  /* 00000018    "....INTL" */
    0x17,0x07,0x15,0x20,0x14,0x30,0x5C,0x2F,  /* 00000020    "... .0\/" */
    0x05,0x5F,0x53,0x42,0x5F,0x50,0x43,0x49,  /* 00000028    "._SB_PCI" */
    0x30,0x50,0x30,0x50,0x32,0x50,0x45,0x47,  /* 00000030    "0P0P2PEG" */
    0x50,0x5F,0x4F,0x4E,0x5F,0x08,0x5C,0x2F,  /* 00000038    "P_ON_.\/" */
    0x05,0x5F,0x53,0x42,0x5F,0x50,0x43,0x49,  /* 00000040    "._SB_PCI" */
    0x30,0x50,0x30,0x50,0x32,0x50,0x45,0x47,  /* 00000048    "0P0P2PEG" */
    0x50,0x5F,0x4F,0x46,0x46                  /* 00000050    "P_OFF"    */
};
